{
  "dataRecordType": "NEW",
  "pdsChangeTimestamp": "20160311201840",
  "serialChangeNumber": "6",
  "nhsNumber": "9412345678",
  "replacementOf": "0087654321",
  "gpProvider": {
    "code": "L12345",
    "startDate": "20120421"
  },
  "nhaisPosting": {
    "code": "AB",
    "startDate": "20110703"
  },
  "previousNhaisPosting": {
    "code": "CD",
    "startDate": "20061108"
  },
  "registrationType": "1",
  "name": {
    "title": "MISS",
    "givenName": "TEST",
    "otherGivenNames": [
      "WITH",
      "MIDDLE",
      "NAMES"
    ],
    "familyName": "USER",
    "previousFamilyName": "ANDOLDSURNAME"
  },
  "dob": "19930507",
  "gender": "1",
  "address": {
    "line1": "1 TEST FLAT",
    "line2": "2 TEST BUILDING",
    "line3": "3 TEST ROAD",
    "line4": "TEST TOWN",
    "line5": "TESTSHIRE",
    "postalCode": "LS11 5DR",
    "pafKey": "AKEY",
    "startDate": "20180701"
  },
  "reasonForRemoval": {
    "code": "COZ",
    "startDate": "20190101"
  },
  "dod": "notyet",
  "contact": {
    "tel": {
      "value": "tel00123",
      "startDate": "20170728"
    },
    "email": {
      "value": "email@email.email",
      "startDate": "20191021"
    }
  },
  "interpreter": "N",
  "isInvalid": "N",
  "raw_data": "NEW|20160311201840|6|9412345678|0087654321|L12345|20120421|AB|20110703|CD|20061108|1|MISS|TEST|WITH,MIDDLE,NAMES|USER|ANDOLDSURNAME|19930507|1|1 TEST FLAT|2 TEST BUILDING|3 TEST ROAD|TEST TOWN|TESTSHIRE|LS11 5DR|AKEY|20180701|COZ|20190101|notyet|tel00123|20170728|mob223344|20180416|email@email.email|20191021|ENGLISH|N|N"
}
