{
  "dataRecordType": "REMOVED",
  "pdsChangeTimestamp": "20140507175410",
  "serialChangeNumber": "4",
  "nhsNumber": "9401891451",
  "gpProvider": {
    "code": "D82027",
    "startDate": "20081010"
  },
  "nhaisPosting": {
    "code": "TE",
    "startDate": "20081010"
  },
  "previousNhaisPosting": {
    "code": "SUN",
    "startDate": "20081010"
  },
  "registrationType": "3",
  "name": {
    "title": "MISS",
    "givenName": "ANNA-LIVIA",
    "otherGivenNames": [
      "SALWA"
    ],
    "familyName": "VESTY"
  },
  "dob": "19501101",
  "gender": "2",
  "address": {
    "line2": "103 HENRIETTA STREET",
    "line4": "NOTTINGHAM",
    "postalCode": "NG6 9JB",
    "startDate": "20071207"
  },
  "raw_data": "REMOVED|20140507175410|4|9401891451||D82027|20081010|TE|20081010|SUN|20081010|3|MISS|ANNA-LIVIA|SALWA|VESTY||19501101|2||103 HENRIETTA STREET||NOTTINGHAM||NG6 9JB||20071207||||||||||||"
}
