{
  "active": false,
  "address": {
    "address_line_1": "1 TEST FLAT",
    "address_line_2": "2 TEST BUILDING",
    "address_line_3": "3 TEST ROAD",
    "address_line_4": "TEST TOWN",
    "address_line_5": "TESTSHIRE",
    "postcode": "LS11 5DR"
  },
  "sanitised_postcode": "LS115DR",
  "address_effective_from_date": "2018-07-01",
  "date_of_birth": "1993-05-07",
  "date_of_birth_and_initial": "1993-05-07U",
  "date_of_birth_and_initial_and_postcode": "1993-05-07ULS115DR",
  "date_of_death": "2024-01-05",
  "first_name": "TEST",
  "gender": "1",
  "is_ceased": true,
  "is_fp69": false,
  "is_invalid_patient": false,
  "last_name": "USER",
  "middle_names": "WITH MIDDLE NAMES",
  "nhais_cipher": "AB",
  "nhs_number": "12345678",
  "sanitised_nhs_number": "12345678",
  "reason_for_removal_code": "COZ",
  "reason_for_removal_effective_from_date": "2019-01-01",
  "record_creation_date": "2011-07-03",
  "registered_gp_practice_code": "L12345",
  "sanitised_first_name": "TEST",
  "sanitised_last_name": "USER",
  "serial_change_number": "6",
  "status": "CEASED",
  "superseded_nhs_number": "0087654321",
  "title": "MISS",
  "participant_id": "12345",
  "sort_key": "PARTICIPANT",
  "cohort_raw_data": {
    "received": "2019-12-05T09:45:23.123456+00:00",
    "value": "this|is|the|raw|data"
  }
}
